lundi,pronunciation_fr_lundi.ogg
mardi,pronunciation_fr_mardi.ogg
mercredi,pronunciation_fr_mercredi.ogg
jeudi,pronunciation_fr_jeudi.ogg
vendredi,pronunciation_fr_vendredi.ogg
samedi,pronunciation_fr_samedi.ogg
dimanche,pronunciation_fr_dimanche.ogg
février,pronunciation_fr_fevrier.ogg
janvier,pronunciation_fr_janvier.ogg
mars,pronunciation_fr_mars.ogg
mai,pronunciation_fr_mai.ogg
juin,pronunciation_fr_juin.ogg
juillet,pronunciation_fr_juillet.ogg
août,pronunciation_fr_aout.ogg
septembre,pronunciation_fr_septembre.ogg
octobre,pronunciation_fr_octobre.ogg
novembre,pronunciation_fr_novembre.ogg
décembre,pronunciation_fr_decembre.ogg
avril,pronunciation_fr_avril.ogg
